C:\bitbucket-projects\aplikacija-uporabniska-navodila\uporabniska-navodila\uporabniska-navodila-war\src\main\java\si\lj\uni\fri\converter\PoglavjeItemConverter.java
C:\bitbucket-projects\aplikacija-uporabniska-navodila\uporabniska-navodila\uporabniska-navodila-war\src\main\java\si\lj\uni\fri\view\ChangePasswordView.java
C:\bitbucket-projects\aplikacija-uporabniska-navodila\uporabniska-navodila\uporabniska-navodila-war\src\main\java\si\lj\uni\fri\view\KratekTecajListView.java
C:\bitbucket-projects\aplikacija-uporabniska-navodila\uporabniska-navodila\uporabniska-navodila-war\src\main\java\si\lj\uni\fri\view\TecajView.java
C:\bitbucket-projects\aplikacija-uporabniska-navodila\uporabniska-navodila\uporabniska-navodila-war\src\main\java\si\lj\uni\fri\view\ErrorView.java
C:\bitbucket-projects\aplikacija-uporabniska-navodila\uporabniska-navodila\uporabniska-navodila-war\src\main\java\si\lj\uni\fri\view\FrameView.java
C:\bitbucket-projects\aplikacija-uporabniska-navodila\uporabniska-navodila\uporabniska-navodila-war\src\main\java\si\lj\uni\fri\view\KratekTecajView.java
C:\bitbucket-projects\aplikacija-uporabniska-navodila\uporabniska-navodila\uporabniska-navodila-war\src\main\java\si\lj\uni\fri\constants\WebConstants.java
C:\bitbucket-projects\aplikacija-uporabniska-navodila\uporabniska-navodila\uporabniska-navodila-war\src\main\java\si\lj\uni\fri\view\TecajListView.java
C:\bitbucket-projects\aplikacija-uporabniska-navodila\uporabniska-navodila\uporabniska-navodila-war\src\main\java\si\lj\uni\fri\view\LoginView.java
